\relax 
\providecommand\hyper@newdestlabel[2]{}
\providecommand*\new@tpo@label[2]{}
\@nameuse{bbl@beforestart}
\catcode `"\active 
\bibstyle{dinat}
\AC@reset@newl@bel
\providecommand\HyperFirstAtBeginDocument{\AtBeginDocument}
\HyperFirstAtBeginDocument{\ifx\hyper@anchor\@undefined
\global\let\oldcontentsline\contentsline
\gdef\contentsline#1#2#3#4{\oldcontentsline{#1}{#2}{#3}}
\global\let\oldnewlabel\newlabel
\gdef\newlabel#1#2{\newlabelxx{#1}#2}
\gdef\newlabelxx#1#2#3#4#5#6{\oldnewlabel{#1}{{#2}{#3}}}
\AtEndDocument{\ifx\hyper@anchor\@undefined
\let\contentsline\oldcontentsline
\let\newlabel\oldnewlabel
\fi}
\fi}
\global\let\hyper@last\relax 
\gdef\HyperFirstAtBeginDocument#1{#1}
\providecommand\HyField@AuxAddToFields[1]{}
\providecommand\HyField@AuxAddToCoFields[2]{}
\providecommand\BKM@entry[2]{}
\providecommand \oddpage@label [2]{}
\babel@aux{ngerman}{}
\babel@aux{ngerman}{}
\babel@aux{ngerman}{}
\@writefile{@@@}{\chapterbegin }
\BKM@entry{id=1,dest={636861707465722A2E32},srcline={249}}{4B75727A66617373756E67202B2046617A6974}
\@writefile{@@@}{\chapterbegin }
\newlabel{kapitel:Kurzfassung}{{}{III}{Kurzfassung \& Fazit}{chapter*.2}{}}
\@writefile{toc}{\contentsline {section}{Kurzfassung + Fazit}{III}{chapter*.2}\protected@file@percent }
\BKM@entry{id=2,dest={636861707465722E31},srcline={1}}{4772756E646C6167656E206465722042696C64766572617262656974756E67}
\BKM@entry{id=3,dest={73656374696F6E2E312E31},srcline={4}}{44696520446566696E6974696F6E20766F6E2042696C64766572617262656974756E67}
\citation{Werner.2021}
\citation{Duden.Bilddaten,Duden.Bildverarbeitung}
\citation{Werner.2021}
\BKM@entry{id=4,dest={73656374696F6E2E312E32},srcline={9}}{42696C64646174656E6461727374656C6C756E6720696E204D6174726978666F726D}
\citation{Erhardt.2008}
\citation{Nischwitz.2020,Werner.2021,Buhler.2017}
\@writefile{toc}{\contentsline {chapter}{\numberline {1}Grundlagen der Bildverarbeitung}{1}{chapter.1}\protected@file@percent }
\@writefile{lof}{\addvspace {10\p@ }}
\@writefile{lot}{\addvspace {10\p@ }}
\@writefile{lol}{\addvspace {10\p@ }}
\@writefile{lof}{\contentsline {xchapter}{Grundlagen der Bildverarbeitung}{1}{chapter.1}\protected@file@percent }
\@writefile{lot}{\contentsline {xchapter}{Grundlagen der Bildverarbeitung}{1}{chapter.1}\protected@file@percent }
\newlabel{kapitel:Theorie}{{1}{1}{Grundlagen der Bildverarbeitung}{chapter.1}{}}
\@writefile{toc}{\contentsline {section}{\numberline {1.1}Die Definition von Bildverarbeitung}{1}{section.1.1}\protected@file@percent }
\@writefile{toc}{\contentsline {section}{\numberline {1.2}Bilddatendarstellung in Matrixform}{1}{section.1.2}\protected@file@percent }
\citation{Werner.2021}
\citation{Werner.2021,Nischwitz.2020}
\@writefile{lof}{\contentsline {figure}{\numberline {1.1}{\ignorespaces Beispiel einer binären Bildmatrix der Dimension 7 x 8}}{2}{figure.caption.3}\protected@file@percent }
\providecommand*\caption@xref[2]{\@setref\relax\@undefined{#1}}
\newlabel{abbildung:bildmatrix}{{1.1}{2}{Beispiel einer binären Bildmatrix der Dimension 7 x 8}{figure.caption.3}{}}
\BKM@entry{id=5,dest={636861707465722E32},srcline={1}}{45696E7361747A6D5C333636676C6963686B656974656E}
\BKM@entry{id=6,dest={73656374696F6E2E322E31},srcline={5}}{50616B65747A656E7472756D}
\@writefile{toc}{\contentsline {chapter}{\numberline {2}Einsatzmöglichkeiten}{3}{chapter.2}\protected@file@percent }
\@writefile{lof}{\addvspace {10\p@ }}
\@writefile{lot}{\addvspace {10\p@ }}
\@writefile{lol}{\addvspace {10\p@ }}
\@writefile{lof}{\contentsline {xchapter}{Einsatzmöglichkeiten}{3}{chapter.2}\protected@file@percent }
\@writefile{lot}{\contentsline {xchapter}{Einsatzmöglichkeiten}{3}{chapter.2}\protected@file@percent }
\newlabel{kapitel:simulation+experiment}{{2}{3}{Einsatzmöglichkeiten}{chapter.2}{}}
\@writefile{toc}{\contentsline {section}{\numberline {2.1}Paketzentrum}{3}{section.2.1}\protected@file@percent }
\BKM@entry{id=7,dest={73656374696F6E2E322E32},srcline={14}}{56522D546563686E6F6C6F676965}
\BKM@entry{id=8,dest={73656374696F6E2E322E33},srcline={17}}{477265656E2D42616C6C2D547261636B696E67}
\@writefile{toc}{\contentsline {section}{\numberline {2.2}VR-Technologie}{4}{section.2.2}\protected@file@percent }
\@writefile{toc}{\contentsline {section}{\numberline {2.3}Green-Ball-Tracking}{4}{section.2.3}\protected@file@percent }
\@writefile{lof}{\contentsline {figure}{\numberline {2.1}{\ignorespaces Ablauf des Trackings}}{4}{figure.caption.4}\protected@file@percent }
\newlabel{abbildung:trackingAblauf}{{2.1}{4}{Ablauf des Trackings}{figure.caption.4}{}}
\newlabel{abbildung:intensitätsmatrizen:original}{{2.2a}{5}{Original}{figure.caption.5}{}}
\newlabel{sub@abbildung:intensitätsmatrizen:original}{{a}{5}{Original}{figure.caption.5}{}}
\newlabel{abbildung:intensitätsmatrizen:rot}{{2.2b}{5}{rot}{figure.caption.5}{}}
\newlabel{sub@abbildung:intensitätsmatrizen:rot}{{b}{5}{rot}{figure.caption.5}{}}
\newlabel{abbildung:intensitätsmatrizen:grün}{{2.2c}{5}{grün}{figure.caption.5}{}}
\newlabel{sub@abbildung:intensitätsmatrizen:grün}{{c}{5}{grün}{figure.caption.5}{}}
\newlabel{abbildung:intensitätsmatrizen:blau}{{2.2d}{5}{blau}{figure.caption.5}{}}
\newlabel{sub@abbildung:intensitätsmatrizen:blau}{{d}{5}{blau}{figure.caption.5}{}}
\@writefile{lof}{\contentsline {figure}{\numberline {2.2}{\ignorespaces Grauwertbilder der Farbanteile im RGB-Farbraum}}{5}{figure.caption.5}\protected@file@percent }
\newlabel{abbildung:intensitätsmatrizen}{{2.2}{5}{Grauwertbilder der Farbanteile im RGB-Farbraum}{figure.caption.5}{}}
\newlabel{formel:anteilGreen}{{2.1}{5}{Green-Ball-Tracking}{equation.2.3.1}{}}
\newlabel{abbildung:grenzwertVariation:original}{{2.3a}{7}{Originalbild}{figure.caption.6}{}}
\newlabel{sub@abbildung:grenzwertVariation:original}{{a}{7}{Originalbild}{figure.caption.6}{}}
\newlabel{abbildung:grenzwertVariation:g=20}{{2.3b}{7}{$g=20$}{figure.caption.6}{}}
\newlabel{sub@abbildung:grenzwertVariation:g=20}{{b}{7}{$g=20$}{figure.caption.6}{}}
\newlabel{abbildung:grenzwertVariation:g=50}{{2.3c}{7}{$g=50$}{figure.caption.6}{}}
\newlabel{sub@abbildung:grenzwertVariation:g=50}{{c}{7}{$g=50$}{figure.caption.6}{}}
\newlabel{abbildung:grenzwertVariation:g=80}{{2.3d}{7}{$g=80$}{figure.caption.6}{}}
\newlabel{sub@abbildung:grenzwertVariation:g=80}{{d}{7}{$g=80$}{figure.caption.6}{}}
\@writefile{lof}{\contentsline {figure}{\numberline {2.3}{\ignorespaces Binäre Bildmatrix nach Farbextraktion mit verschiedenen Grenzwerten $g$}}{7}{figure.caption.6}\protected@file@percent }
\newlabel{abbildung:grenzwertVariation}{{2.3}{7}{Binäre Bildmatrix nach Farbextraktion mit verschiedenen Grenzwerten $g$}{figure.caption.6}{}}
\newlabel{code:findcentroid}{{2.1}{7}{Funktion FindCentroid zum Ermitteln des Schwerpunkts des Objekts}{lstlisting.2.1}{}}
\@writefile{lol}{\contentsline {lstlisting}{\numberline {2.1}Funktion FindCentroid zum Ermitteln des Schwerpunkts des Objekts}{7}{lstlisting.2.1}\protected@file@percent }
\BKM@entry{id=9,dest={73656374696F6E2E322E34},srcline={163}}{436F6C6F7265642042616C6C2D547261636B696E67}
\newlabel{code:markImage}{{2.2}{8}{Funktion MarkImage zur Erzeugung von farbigen Linien, welche den Schwerpunkt darstellen}{lstlisting.2.2}{}}
\@writefile{lol}{\contentsline {lstlisting}{\numberline {2.2}Funktion MarkImage zur Erzeugung von farbigen Linien, welche den Schwerpunkt darstellen}{8}{lstlisting.2.2}\protected@file@percent }
\@writefile{lof}{\contentsline {figure}{\numberline {2.4}{\ignorespaces Ausgehendes Bild mit farbigen Linien zur Darstellung des ermittelten Schwerpunkts}}{9}{figure.caption.7}\protected@file@percent }
\newlabel{abbildung:BildMitLinien}{{2.4}{9}{Ausgehendes Bild mit farbigen Linien zur Darstellung des ermittelten Schwerpunkts}{figure.caption.7}{}}
\@writefile{toc}{\contentsline {section}{\numberline {2.4}Colored Ball-Tracking}{9}{section.2.4}\protected@file@percent }
\newlabel{formel:anteilBlue}{{2.9}{9}{Colored Ball-Tracking}{equation.2.4.9}{}}
\@writefile{lof}{\contentsline {figure}{\numberline {2.5}{\ignorespaces Aufbau der Objekterkennung zur Detektierung und Darstellung von grünen Objekten in Simulink\textsuperscript  {\textregistered } }}{10}{figure.caption.8}\protected@file@percent }
\newlabel{abbildung:simulinkAufbau}{{2.5}{10}{Aufbau der Objekterkennung zur Detektierung und Darstellung von grünen Objekten in \Simulink }{figure.caption.8}{}}
\BKM@entry{id=10,dest={636861707465722A2E39},srcline={261}}{416262696C64756E67737665727A656963686E6973}
\bibdata{Kapitel/Schluss/Literatur_Citavi.bib}
\@writefile{@@@}{\chapterbegin }
\@writefile{toc}{\contentsline {starchapter}{Abbildungsverzeichnis}{11}{chapter*.9}\protected@file@percent }
\newlabel{kapitel:Literaturverzeichnis}{{2.4}{11}{Colored Ball-Tracking}{chapter*.9}{}}
\bibcite{Buhler.2017}{{1}{2017}{{B{\"u}hler u.\tmspace  +\thinmuskip {.1667em}a.}}{{B{\"u}hler, Schlaich und Sinner}}}
\bibcite{Duden.Bilddaten}{{2}{14. Mai. 2021{a}}{{Duden}}{{}}}
\bibcite{Duden.Bildverarbeitung}{{3}{14. Mai. 2021{b}}{{Duden}}{{}}}
\bibcite{Erhardt.2008}{{4}{2008}{{Erhardt}}{{}}}
\bibcite{Nischwitz.2020}{{5}{2020}{{Nischwitz u.\tmspace  +\thinmuskip {.1667em}a.}}{{Nischwitz, Fischer, Haber{\"a}cker und Socher}}}
\bibcite{Werner.2021}{{6}{2021}{{Werner}}{{}}}
\BKM@entry{id=11,dest={636861707465722A2E3130},srcline={264}}{4C69746572617475727665727A656963686E6973}
\@writefile{@@@}{\chapterbegin }
\@writefile{toc}{\contentsline {starchapter}{Literaturverzeichnis}{12}{chapter*.10}\protected@file@percent }
\global\mtcsecondpartfalse
\@writefile{@@@}{\chapterbegin }
\newlabel{kapitel:Erklärung zur Eigenleistung}{{2.4}{I}{Eidesstattliche Erklärung}{chapter*.11}{}}
\global\@namedef{scr@dte@chapter@lastmaxnumwidth}{12.14694pt}
\global\@namedef{scr@dte@section@lastmaxnumwidth}{19.70898pt}
\global\@namedef{scr@dte@figure@lastmaxnumwidth}{19.70898pt}
