\babel@toc {ngerman}{}
\babel@toc {ngerman}{}
\babel@toc {ngerman}{}
\contentsline {section}{Kurzfassung + Fazit}{III}{chapter*.2}%
\contentsline {chapter}{\numberline {1}Grundlagen der Bildverarbeitung}{1}{chapter.1}%
\contentsline {section}{\numberline {1.1}Die Definition von Bildverarbeitung}{1}{section.1.1}%
\contentsline {section}{\numberline {1.2}Bilddatendarstellung in Matrixform}{1}{section.1.2}%
\contentsline {chapter}{\numberline {2}Einsatzmöglichkeiten}{3}{chapter.2}%
\contentsline {section}{\numberline {2.1}Paketzentrum}{3}{section.2.1}%
\contentsline {section}{\numberline {2.2}VR-Technologie}{4}{section.2.2}%
\contentsline {section}{\numberline {2.3}Green-Ball-Tracking}{4}{section.2.3}%
\contentsline {section}{\numberline {2.4}Colored Ball-Tracking}{9}{section.2.4}%
\contentsline {starchapter}{Abbildungsverzeichnis}{11}{chapter*.9}%
\contentsline {starchapter}{Literaturverzeichnis}{12}{chapter*.10}%
